{
    "request": {
        "method": "GET",
        "url": "/api/ap2"
    },
    "response": {
        "status": 200,
        "headers": {
              "Content-Type": "application/json"
        },
        "jsonBody": {
            "kind": "youtube#searchListResponse",
            "etag": "m2yskBQFythfE4irbTIeOgYYfBU/PaiEDiVxOyCWelLPuuwa9LKz3Gk",
            "nextPageToken": "CAUQAA",
            "regionCode": "KE"
        }
    }
}