{
    "request": {
        "method": "GET",
        "url": "/master-account/child-poses"
    },
    "response": {
        "status": 200,
        "headers": {
              "Content-Type": "application/json"
        },
        "jsonBody": {
            "kind": "youtube#searchListResponse",
            "etag": "m2yskBQFythfE4irbTIeOgYYfBU/PaiEDiVxOyCWelLPuuwa9LKz3Gk",
            "nextPageToken": "CAUQAA",
            "regionCode": "KE",
            "masterInfo": {
                "sTempAccountId": "01819100200",
                "sTempMasterName": "iamshafin"
            },
            "poses": [
                {
                    "sTempMsisdn": "01133182504",
                    "sTempAccountCode": "m2yskBQFythfE4irbTIeOgYYfBU/QpOIr3QKlV5EUlzfFcVvDiJT0hw",
		    "sTempSimSerialNumber":"1000200300",
		    "sTempImeiNumber":"351756051523999"
		},
                {
                    "sTempMsisdn": "01333182504",
                    "sTempAccountCode": "m2yskBQFythfE4irbTIeOgYYfBU/QpOIr3QKlV5EUlzfFcVvDiJT0hw",
		    "sTempSimSerialNumber":"1000200300",
		    "sTempImeiNumber":"351756051523999"
		},
                {
                    "sTempMsisdn": "01333182504",
                    "sTempAccountCode": "m2yskBQFythfE4irbTIeOgYYfBU/QpOIr3QKlV5EUlzfFcVvDiJT0hw",
		    "sTempSimSerialNumber":"1000200300",
		    "sTempImeiNumber":"351756051523999"
		},
                {
                    "sTempMsisdn": "01333182504",
                    "sTempAccountCode": "m2yskBQFythfE4irbTIeOgYYfBU/QpOIr3QKlV5EUlzfFcVvDiJT0hw",
		    "sTempSimSerialNumber":"1000200300",
		    "sTempImeiNumber":"351756051523999"
		},
                {
                    "sTempMsisdn": "01433182504",
                    "sTempAccountCode": "m2yskBQFythfE4irbTIeOgYYfBU/QpOIr3QKlV5EUlzfFcVvDiJT0hw",
		    "sTempSimSerialNumber":"1000200300",
		    "sTempImeiNumber":"351756051523999"
		},
                {
                    "sTempMsisdn": "01733182504",
                    "sTempAccountCode": "m2yskBQFythfE4irbTIeOgYYfBU/QpOIr3QKlV5EUlzfFcVvDiJT0hw",
		    "sTempSimSerialNumber":"1000200300",
		    "sTempImeiNumber":"351756051523999"
		},
                {
                    "sTempMsisdn": "01833182504",
                    "sTempAccountCode": "m2yskBQFythfE4irbTIeOgYYfBU/QpOIr3QKlV5EUlzfFcVvDiJT0hw",
		    "sTempSimSerialNumber":"1000200300",
		    "sTempImeiNumber":"351756051523999"
		},
                {
                    "sTempMsisdn": "01133182504",
                    "sTempAccountCode": "m2yskBQFythfE4irbTIeOgYYfBU/QpOIr3QKlV5EUlzfFcVvDiJT0hw",
		    "sTempSimSerialNumber":"1000200300",
		    "sTempImeiNumber":"351756051523999"
		},
                {
                    "sTempMsisdn": "01133182504",
                    "sTempAccountCode": "m2yskBQFythfE4irbTIeOgYYfBU/QpOIr3QKlV5EUlzfFcVvDiJT0hw",
		    "sTempSimSerialNumber":"1000200300",
		    "sTempImeiNumber":"351756051523999"
		},
                {
                    "sTempMsisdn": "01133182504",
                    "sTempAccountCode": "m2yskBQFythfE4irbTIeOgYYfBU/QpOIr3QKlV5EUlzfFcVvDiJT0hw",
		    "sTempSimSerialNumber":"1000200300",
		    "sTempImeiNumber":"351756051523999"
		},
                {
                    "sTempMsisdn": "01133182504",
                    "sTempAccountCode": "m2yskBQFythfE4irbTIeOgYYfBU/QpOIr3QKlV5EUlzfFcVvDiJT0hw",
		    "sTempSimSerialNumber":"1000200300",
		    "sTempImeiNumber":"351756051523999"
		},
                {
                    "sTempMsisdn": "01133182504",
                    "sTempAccountCode": "m2yskBQFythfE4irbTIeOgYYfBU/QpOIr3QKlV5EUlzfFcVvDiJT0hw",
		    "sTempSimSerialNumber":"1000200300",
		    "sTempImeiNumber":"351756051523999"
		},
                {
                    "sTempMsisdn": "01133182504",
                    "sTempAccountCode": "m2yskBQFythfE4irbTIeOgYYfBU/QpOIr3QKlV5EUlzfFcVvDiJT0hw",
		    "sTempSimSerialNumber":"1000200300",
		    "sTempImeiNumber":"351756051523999"
		},
                {
                    "sTempMsisdn": "01133182504",
                    "sTempAccountCode": "m2yskBQFythfE4irbTIeOgYYfBU/QpOIr3QKlV5EUlzfFcVvDiJT0hw",
		    "sTempSimSerialNumber":"1000200300",
		    "sTempImeiNumber":"351756051523999"
		},
                {
                    "sTempMsisdn": "01133182504",
                    "sTempAccountCode": "m2yskBQFythfE4irbTIeOgYYfBU/QpOIr3QKlV5EUlzfFcVvDiJT0hw",
		    "sTempSimSerialNumber":"1000200300",
		    "sTempImeiNumber":"351756051523999"
		},
                {
                    "sTempMsisdn": "01133182504",
                    "sTempAccountCode": "m2yskBQFythfE4irbTIeOgYYfBU/QpOIr3QKlV5EUlzfFcVvDiJT0hw",
		    "sTempSimSerialNumber":"1000200300",
		    "sTempImeiNumber":"351756051523999"
		},
                {
                    "sTempMsisdn": "01133182504",
                    "sTempAccountCode": "m2yskBQFythfE4irbTIeOgYYfBU/QpOIr3QKlV5EUlzfFcVvDiJT0hw",
		    "sTempSimSerialNumber":"1000200300",
		    "sTempImeiNumber":"351756051523999"
		},
                {
                    "sTempMsisdn": "01133182504",
                    "sTempAccountCode": "m2yskBQFythfE4irbTIeOgYYfBU/QpOIr3QKlV5EUlzfFcVvDiJT0hw",
		    "sTempSimSerialNumber":"1000200300",
		    "sTempImeiNumber":"351756051523999"
		}         
           ]
        }
    }
}